
		<div class="header_top">	
            <div class="container">
                <div class="row">
                    <div class="logo_section">
                        <a class="navbar-brand" href="index.html"><img src="images/logoS.png" width="300px" height="110px" alt="image"></a>
                    </div>
                    <div class="site_information">
                        <table border=0 cellpadding="10px" cellspacing="2px" align="right">
						    <tr>
                            <td><a href="mailto:duodecimocongresomatematicas@gmail.com"><img src="images/mail_icon.png" alt="#" size=/>duodecimocongresomatematicas@gmail.com</a></td>
                            <td><a href="tel:exchang@gmail.com"><img src="images/phone_icon.png" alt="#" />56 23 18 86 y 56 23 18 90</a></td>
                            
							</tr>
                        </table>
                    </div>
                </div>
            </div>
        </div>